{
  "$schema": "http://json-schema.org/schema#",
  "type": "object",
  "properties": {
    "component": {
      "anyOf": [
        {
          "type": "null"
        },
        {
          "type": "object",
          "properties": {
            "id": {
              "type": [
                "null",
                "string"
              ]
            },
            "comment": {
              "type": [
                "null",
                "string"
              ]
            },
            "description": {
              "type": [
                "null",
                "string"
              ]
            },
            "manufacturerParts": {
              "type": "array",
              "items": {
                "type": "object",
                "properties": {
                  "partNumber": {
                    "type": [
                      "null",
                      "string"
                    ]
                  },
                  "companyName": {
                    "type": [
                      "null",
                      "string"
                    ]
                  }
                }
              }
            }
          }
        }
      ]
    },
    "bomItemInstances": {
      "anyOf": [
        {
          "type": "null"
        },
        {
          "type": "array",
          "items": {
            "type": "object",
            "properties": {
              "designator": {
                "type": [
                  "null",
                  "string"
                ]
              },
              "isFitted": {
                "type": [
                  "null",
                  "boolean"
                ]
              }
            }
          }
        }
      ]
    },
    "quantity": {
      "type": [
        "integer",
        "null"
      ]
    },
    "bomProjectId": {
      "type": [
        "string",
        "null"
      ]
    }
  }
}